{
  "type": "table",
  "label": "Table",
  "title":"",
  "subtitle":"",
  "body": {
    "type": "text",
    "value": "",
    "format": "advance_html"
  },
  "thead": {
    "items":[
      {
        "type": "text",
        "value": "",
        "class": ""
      }
    ]
  },
  "tbody": {
    "items": [
      {
        "class": "",
        "cells":[
          {
            "type": "text",
            "value": "",
            "class": ""
          }
        ]
      }
    ]
  },
  "options": {
    "full_width": false,
    "custom_classes": "",
    "selected_class": ""
  }
}