{
  "type": "custom_paragraph",
  "title":"Título de este componente complejo",
  "icon":"https://dummyimage.com/400x520/cf08cf/fff",
  "subtitle":"Subtitulo de este componente complejo",
  "image": {
    "type": "image",
    "value": "https://dummyimage.com/400x520/cf08cf/fff",
    "target": "_blank"
  },
  "body": {
    "type": "text",
    "value": "<p>AEA</p>\r\n",
    "format": "advance_html"
  }
}
