{
  "type": "schedule",
  "items":[
    {
      "type": "hour",
      "hour": "09:00",
      "body": {
        "type": "accordion",
        "title": "Titulo de la charla",
        "body": {
          "type": "text",
          "value": "<p>AEA</p>\r\n",
          "format": "advance_html"
        }
      }
    }
  ]
}
