{
  "type": "data_number_card",
  "label": "Data number card",
  "options": {
    "aligment": "left",
    "full_width": false,
    "custom_classes": "",
    "selected_class": "",
    "group_items_quantity": 0,
    "group_classes": ""
  },
  "title": "",
  "subtitle": "",
  "image": {
    "type": "image",
    "fid": "",
    "alt": "",
    "title": "",
    "value": ""
  },
  "link": {
    "type": "link",
    "value": "",
    "text": "",
    "target": "",
    "external": true,
    "relative": ""
  },
  "body": {
    "type": "text",
    "value": "",
    "format": "advance_html"
  },
  "items": {
    "type": "data_number_wrapper",
    "items" : [
      {
        "type": "data_number",
        "suffix": "",
        "value": "",
        "prefix": "",
        "text": ""
      }
    ]
  }
}
